\relax 
\providecommand\hyper@newdestlabel[2]{}
\catcode `"\active 
\providecommand\HyperFirstAtBeginDocument{\AtBeginDocument}
\HyperFirstAtBeginDocument{\ifx\hyper@anchor\@undefined
\global\let\oldcontentsline\contentsline
\gdef\contentsline#1#2#3#4{\oldcontentsline{#1}{#2}{#3}}
\global\let\oldnewlabel\newlabel
\gdef\newlabel#1#2{\newlabelxx{#1}#2}
\gdef\newlabelxx#1#2#3#4#5#6{\oldnewlabel{#1}{{#2}{#3}}}
\AtEndDocument{\ifx\hyper@anchor\@undefined
\let\contentsline\oldcontentsline
\let\newlabel\oldnewlabel
\fi}
\fi}
\global\let\hyper@last\relax 
\gdef\HyperFirstAtBeginDocument#1{#1}
\providecommand\HyField@AuxAddToFields[1]{}
\providecommand\HyField@AuxAddToCoFields[2]{}
\citation{WHO:2017}
\citation{Obeid.Picone:2016a}
\babel@aux{ngerman}{}
\@writefile{toc}{\contentsline {section}{\numberline {I}Einleitung}{1}{section.1}}
\@writefile{toc}{\contentsline {section}{\numberline {II}Daten}{1}{section.2}}
\citation{debayle_hatami_gavet_2018}
\citation{wiki_rec}
\citation{wiki_rec}
\citation{wiki_rec}
\@writefile{lof}{\contentsline {figure}{\numberline {1}{\ignorespaces Ausschnitt aus einer EEG-Datei enthalten im EEG-Corpus.}}{2}{figure.1}}
\newlabel{fig:DataExample}{{1}{2}{Ausschnitt aus einer EEG-Datei enthalten im EEG-Corpus}{figure.1}{}}
\@writefile{toc}{\contentsline {subsection}{\numberline {\unhbox \voidb@x \hbox {II-A}}Vorverarbeitung}{2}{subsection.2.1}}
\newlabel{Vorverarbeitung}{{\unhbox \voidb@x \hbox {II-A}}{2}{Vorverarbeitung}{subsection.2.1}{}}
\@writefile{toc}{\contentsline {subsubsection}{\numberline {\unhbox \voidb@x \hbox {II-A}1}Abspeichern als Bilder}{2}{subsubsection.2.1.1}}
\@writefile{lof}{\contentsline {figure}{\numberline {2}{\ignorespaces Typischer Frequenzgang eines Bandpassfilters mit 0,5 und 30 Hz Sperrfrequenz.}}{2}{figure.2}}
\newlabel{fig:Filter}{{2}{2}{Typischer Frequenzgang eines Bandpassfilters mit 0,5 und 30 Hz Sperrfrequenz}{figure.2}{}}
\newlabel{equ:Req}{{1}{2}{Abspeichern als Bilder}{equation.2.1}{}}
\@writefile{lof}{\contentsline {figure}{\numberline {3}{\ignorespaces Veranschaulicht sind verschiedene typische Signale und die dazu geh\IeC {\"o}rigen Rekurrenzplots. \cite  {wiki_rec}}}{2}{figure.3}}
\newlabel{fig:RecurrencePlot}{{3}{2}{Veranschaulicht sind verschiedene typische Signale und die dazu gehörigen Rekurrenzplots. \cite {wiki_rec}}{figure.3}{}}
\citation{deepLearn}
\@writefile{lof}{\contentsline {figure}{\numberline {4}{\ignorespaces Ausschnitt aus einer EEG-Datei (30 Sekunden), dabei sind jeweils am Anfang und Ende normale Hirnstr\IeC {\"o}me und in der Mitte der Anfall. Von ca. 8 bis 22 Sekunden geht der Anfall, auch durch die helleren Striche erkennbar.}}{3}{figure.4}}
\newlabel{fig:rec_ganz}{{4}{3}{Ausschnitt aus einer EEG-Datei (30 Sekunden), dabei sind jeweils am Anfang und Ende normale Hirnströme und in der Mitte der Anfall. Von ca. 8 bis 22 Sekunden geht der Anfall, auch durch die helleren Striche erkennbar}{figure.4}{}}
\@writefile{lof}{\contentsline {figure}{\numberline {5}{\ignorespaces Rekurrenzplot eines einen Sekunde langen Fensters innerhalb einer Absence}}{3}{figure.5}}
\newlabel{fig:rec_abs}{{5}{3}{Rekurrenzplot eines einen Sekunde langen Fensters innerhalb einer Absence}{figure.5}{}}
\@writefile{lof}{\contentsline {figure}{\numberline {6}{\ignorespaces Rekurrenzplot einer einen Sekunde langen interiktalen Zeitreihe}}{3}{figure.6}}
\newlabel{fig:rec_norm}{{6}{3}{Rekurrenzplot einer einen Sekunde langen interiktalen Zeitreihe}{figure.6}{}}
\@writefile{lof}{\contentsline {figure}{\numberline {7}{\ignorespaces Beschreibung der verschiedenen Layer eines CNNs.\cite  {deepLearn}}}{3}{figure.7}}
\newlabel{fig:CNN}{{7}{3}{Beschreibung der verschiedenen Layer eines CNNs.\cite {deepLearn}}{figure.7}{}}
\@writefile{toc}{\contentsline {subsubsection}{\numberline {\unhbox \voidb@x \hbox {II-A}2}Abspeichern als Datenpunkte}{3}{subsubsection.2.1.2}}
\@writefile{toc}{\contentsline {subsection}{\numberline {\unhbox \voidb@x \hbox {II-B}}Methoden}{3}{subsection.2.2}}
\newlabel{Methoden}{{\unhbox \voidb@x \hbox {II-B}}{3}{Methoden}{subsection.2.2}{}}
\citation{deep_java}
\citation{wiki_rnn}
\citation{wiki_rnn}
\@writefile{lof}{\contentsline {figure}{\numberline {8}{\ignorespaces Einer von f\IeC {\"u}nf Bl\IeC {\"o}cken Layerstruktur eines CNNs. \cite  {deep_java}}}{4}{figure.8}}
\newlabel{fig:Layer2}{{8}{4}{Einer von fünf Blöcken Layerstruktur eines CNNs. \cite {deep_java}}{figure.8}{}}
\@writefile{toc}{\contentsline {subsection}{\numberline {\unhbox \voidb@x \hbox {II-C}}CNN}{4}{subsection.2.3}}
\@writefile{lot}{\contentsline {table}{\numberline {I}{\ignorespaces Vierfeldertafel des Ergebnisses mittels weniger Layer mit dem CNN Netzwerk}}{4}{table.1}}
\newlabel{Tab:CNN1}{{I}{4}{Vierfeldertafel des Ergebnisses mittels weniger Layer mit dem CNN Netzwerk}{table.1}{}}
\@writefile{lot}{\contentsline {table}{\numberline {II}{\ignorespaces Vierfeldertafel des Ergebnisses mittels mehrere Layer mit dem CNN Netzwerk}}{4}{table.2}}
\newlabel{Tab:CNN2}{{II}{4}{Vierfeldertafel des Ergebnisses mittels mehrere Layer mit dem CNN Netzwerk}{table.2}{}}
\@writefile{toc}{\contentsline {subsubsection}{\numberline {\unhbox \voidb@x \hbox {II-C}1}Ergebnisse}{4}{subsubsection.2.3.1}}
\@writefile{toc}{\contentsline {subsection}{\numberline {\unhbox \voidb@x \hbox {II-D}}Rekurrente Neuronale Netzwerke}{4}{subsection.2.4}}
\@writefile{lof}{\contentsline {figure}{\numberline {9}{\ignorespaces Verschiedene Arten von R\IeC {\"u}ckkopplungen - Blau: direkte R\IeC {\"u}ckkopplung; Gr\IeC {\"u}n: indirekte R\IeC {\"u}ckkopplung; Rot: seitliche R\IeC {\"u}ckkopplung \cite  {wiki_rnn}}}{4}{figure.9}}
\newlabel{Fig:RNN_X}{{9}{4}{Verschiedene Arten von Rückkopplungen - Blau: direkte Rückkopplung; Grün: indirekte Rückkopplung; Rot: seitliche Rückkopplung \cite {wiki_rnn}}{figure.9}{}}
\citation{wiki_lstm}
\citation{Berry2016}
\@writefile{toc}{\contentsline {subsubsection}{\numberline {\unhbox \voidb@x \hbox {II-D}1}Ergebnisse}{5}{subsubsection.2.4.1}}
\@writefile{lof}{\contentsline {figure}{\numberline {10}{\ignorespaces In der Abbildung ist zu erkennen, dass die Fehlerrate recht schnell auf 0,2 sinkt. In der Mitte der zweiten Epoche l\IeC {\"a}sst sich eine Unregelm\IeC {\"a}\IeC {\ss }igkeit im Fehler erkennen.}}{5}{figure.10}}
\newlabel{fig:Neurone5}{{10}{5}{In der Abbildung ist zu erkennen, dass die Fehlerrate recht schnell auf 0,2 sinkt. In der Mitte der zweiten Epoche lässt sich eine Unregelmäßigkeit im Fehler erkennen}{figure.10}{}}
\@writefile{lof}{\contentsline {figure}{\numberline {11}{\ignorespaces Dies war unser erster Versuch um das Problem zu l\IeC {\"o}sen, deswegen ist hier die Epochenanzahl auch noch doppelt so lang als bei den anderen Bildern. Auch l\IeC {\"a}sst sich recht gut das Absinken des Fehlers bei dem ca. 800ten Mini-Batch erkennen. Mit dem Absinken der Fehler Rate steigt auch die Genauigkeit.}}{5}{figure.11}}
\newlabel{fig:Neurone31}{{11}{5}{Dies war unser erster Versuch um das Problem zu lösen, deswegen ist hier die Epochenanzahl auch noch doppelt so lang als bei den anderen Bildern. Auch lässt sich recht gut das Absinken des Fehlers bei dem ca. 800ten Mini-Batch erkennen. Mit dem Absinken der Fehler Rate steigt auch die Genauigkeit}{figure.11}{}}
\@writefile{lof}{\contentsline {figure}{\numberline {12}{\ignorespaces Unser zweiter Versuch mit mehr Neuronen und Layern. Hier haben wir einen LSTM-Layer mit 100 Neuronen, einen zweiten mit 31 und den letzten wieder mit 100 Neuronen getestet. Erkennbar ist, dass hier keine \IeC {\"A}nderung innerhalb der zwei Epochen erfolgt.}}{5}{figure.12}}
\newlabel{fig:Neurone100-31-100}{{12}{5}{Unser zweiter Versuch mit mehr Neuronen und Layern. Hier haben wir einen LSTM-Layer mit 100 Neuronen, einen zweiten mit 31 und den letzten wieder mit 100 Neuronen getestet. Erkennbar ist, dass hier keine Änderung innerhalb der zwei Epochen erfolgt}{figure.12}{}}
\citation{debayle_hatami_gavet_2018}
\bibstyle{IEEEtran}
\bibdata{BerichtBib}
\bibcite{WHO:2017}{1}
\bibcite{Obeid.Picone:2016a}{2}
\bibcite{debayle_hatami_gavet_2018}{3}
\bibcite{wiki_rec}{4}
\bibcite{deepLearn}{5}
\bibcite{deep_java}{6}
\bibcite{wiki_rnn}{7}
\bibcite{wiki_lstm}{8}
\bibcite{Berry2016}{9}
\@writefile{lof}{\contentsline {figure}{\numberline {13}{\ignorespaces Bei diesem Fall haben wir 200 Neurone in einem Layer getestet. Dabei ist \IeC {\"a}hnlich wie zu dem \autoref  {fig:Neurone31} der Fehler noch einmal gesunken.}}{6}{figure.13}}
\newlabel{fig:Neurone200}{{13}{6}{Bei diesem Fall haben wir 200 Neurone in einem Layer getestet. Dabei ist ähnlich wie zu dem \autoref {fig:Neurone31} der Fehler noch einmal gesunken}{figure.13}{}}
\@writefile{lot}{\contentsline {table}{\numberline {III}{\ignorespaces Vierfeldertafel des Ergebnisses mit 2 Layern, wobei der erste 31 und der zweite 1 Neuron enthalten}}{6}{table.3}}
\newlabel{Tab:RNN1}{{III}{6}{Vierfeldertafel des Ergebnisses mit 2 Layern, wobei der erste 31 und der zweite 1 Neuron enthalten}{table.3}{}}
\@writefile{toc}{\contentsline {section}{\numberline {III}Diskussion und Fazit}{6}{section.3}}
\@writefile{lot}{\contentsline {table}{\numberline {IV}{\ignorespaces Vierfeldertafel des Ergebnisses mit 3 Layern, wobei der erste und der letzte 100 und der mittlere 31 Neurone enthalten}}{6}{table.4}}
\newlabel{Tab:RNN2}{{IV}{6}{Vierfeldertafel des Ergebnisses mit 3 Layern, wobei der erste und der letzte 100 und der mittlere 31 Neurone enthalten}{table.4}{}}
\@writefile{lot}{\contentsline {table}{\numberline {V}{\ignorespaces Vierfeldertafel des Ergebnisses mit 2 Layern, wobei beide 200 Neurone enthalten}}{6}{table.5}}
\newlabel{Tab:RNN3}{{V}{6}{Vierfeldertafel des Ergebnisses mit 2 Layern, wobei beide 200 Neurone enthalten}{table.5}{}}
\@writefile{toc}{\contentsline {section}{Literatur}{6}{section*.1}}
